{"help": "http://datastudio.hkstp.org:5000/api/3/action/help_show?name=datastore_search", "success": true, "result": {"include_total": true, "resource_id": "0e27027d-ef86-4d03-ba99-3bb0fafec3f9", "fields": [{"type": "int", "id": "_id"}, {"type": "text", "id": "Title"}, {"type": "text", "id": "Descriptions"}, {"type": "text", "id": "Topics"}, {"type": "timestamp", "id": "Published"}, {"type": "numeric", "id": "article_id"}, {"type": "text", "id": "Pageviews"}, {"type": "text", "id": "UniqueVistors"}], "records_format": "objects", "records": [{"_id": 1, "Title": "It's about more than the score", "Descriptions": "Stories are the way to stand out, says one the judges of the Student of the Year (SOTY) ' Sportsperson award....", "Topics": "", "Published": "2017-01-02T02:22:01", "article_id": 2058633, "Pageviews": "691,861", "UniqueVistors": "470,465"}, {"_id": 2, "Title": "A century of conflicts", "Descriptions": "On July 7, 1937 a Japanese soldier went missing near the town of Wanping, outside Beijing. Known as the Marco Polo Incident, this affair became the catalyst for the second Sino-Japanese. The two powers were locked in bloody conflict throughout the first half of the 20th century", "Topics": "", "Published": "2017-07-07T00:44:39", "article_id": 2101403, "Pageviews": "628,921", "UniqueVistors": "345,907"}, {"_id": 3, "Title": "The evolution of Hong Kong from outpost to megacity", "Descriptions": "Watch as Hong Kong transforms from a salt mining outpost to financial powerhouse in our 360 video project", "Topics": "", "Published": "2017-07-20T06:45:15", "article_id": 2102966, "Pageviews": "428,877", "UniqueVistors": "308,791"}, {"_id": 4, "Title": "Win a stay at a luxury hotel", "Descriptions": "", "Topics": "", "Published": "2017-02-06T07:00:00", "article_id": 2068752, "Pageviews": "1,136,548", "UniqueVistors": "784,218"}, {"_id": 5, "Title": "Know your news? Play SCMP's weekend quiz", "Descriptions": "", "Topics": "", "Published": "2017-05-13T05:30:45", "article_id": 2093959, "Pageviews": "747,591", "UniqueVistors": "493,410"}, {"_id": 6, "Title": "Test your news knowledge with our weekly quiz", "Descriptions": "", "Topics": "", "Published": "2017-05-20T05:33:32", "article_id": 2094986, "Pageviews": "151,431", "UniqueVistors": "81,773"}, {"_id": 7, "Title": "(testing) 12. Hong Kong on the 20th anniversary of the city's handover from Britain to China", "Descriptions": "", "Topics": "", "Published": "2017-12-13T04:45:45", "article_id": 2124110, "Pageviews": "122,108", "UniqueVistors": "90,360"}, {"_id": 8, "Title": "How well do you know your news? Try our Saturday quiz", "Descriptions": "", "Topics": "", "Published": "2017-05-06T01:30:00", "article_id": 2093158, "Pageviews": "625,341", "UniqueVistors": "375,205"}, {"_id": 9, "Title": "Fast and furious: drone racing takes off in Europe and China", "Descriptions": "Drone racing is fast becoming a popular sport, not only in Europe but also in China. A total of 120 Unmanned Aerial Vehicle (UAV) participants competed for the title of 'King of Speed' in northwest China's Yinchuan City.", "Topics": "", "Published": "2017-11-23T07:45:00", "article_id": 2121250, "Pageviews": "620,470", "UniqueVistors": "397,101"}, {"_id": 10, "Title": "Ex-US Navy admiral who partied across Southeast Asia gets 18 months in jail for lying", "Descriptions": "Over two decades, Robert Gilbeau rose through the ranks to navy admiral and earned a chest full of honours for his service, including a Bronze Star and Purple Heart....", "Topics": "", "Published": "2017-05-18T11:16:58", "article_id": 2094854, "Pageviews": "837,898", "UniqueVistors": "435,707"}], "limit": 10, "_links": {"start": "/api/action/datastore_search?limit=10&resource_id=0e27027d-ef86-4d03-ba99-3bb0fafec3f9", "next": "/api/action/datastore_search?offset=10&limit=10&resource_id=0e27027d-ef86-4d03-ba99-3bb0fafec3f9"}, "total": 35768}}